{
  "AWSEBDockerrunVersion": 1,
  "Image": {
    "Name": "AWS_DOCKER_CONTAINER_IMAGE_TAG",
    "Update": "true"
  },
  "Ports": [
    {
      "ContainerPort": "3000",
      "hostPort": 80
    }
  ]
}
